…
The variable `correct` ranges from 0 to 1, with an average of .49, which
is pretty darn close to the .5 probability we set for these birds to
choose. When all of this data (2600 observations) is pooled together,
our sample size seems large enough to accurately recover the parameter
value from the mean. But what if we look at individual birds separately?
Let’s take a peek.

``` r
df_dumb %>% group_by(bird_ID) %>% summarize(mean=mean(correct),sd=sd(correct))
```

    ## `summarise()` ungrouping output (override with `.groups` argument)

    ## # A tibble: 26 x 3
    ##    bird_ID  mean    sd
    ##    <fct>   <dbl> <dbl>
    ##  1 a        0.49 0.502
    ##  2 b        0.47 0.502
    ##  3 c        0.43 0.498
    ##  4 d        0.45 0.5  
    ##  5 e        0.5  0.503
    ##  6 f        0.52 0.502
    ##  7 g        0.47 0.502
    ##  8 h        0.5  0.503
    ##  9 i        0.44 0.499
    ## 10 j        0.52 0.502
    ## # … with 16 more rows
…
